<?xml version="1.0" encoding="UTF-8"?>
<svg width="80px" height="62px" viewBox="0 0 80 62" version="1.1" xmlns="http://www.w3.org/2000/svg" xmlns:xlink="http://www.w3.org/1999/xlink">
    <!-- Generator: Sketch 56.3 (81716) - https://sketch.com -->
    <title>np_home_1706885_666666</title>
    <desc>Created with Sketch.</desc>
    <g id="Page-1" stroke="none" stroke-width="1" fill="none" fill-rule="evenodd">
        <g id="np_home_1706885_666666" transform="translate(39.500000, 31.000000) scale(-1, 1) translate(-39.500000, -31.000000) translate(-1.000000, 0.000000)" fill="#666666" fill-rule="nonzero">
            <path d="M40.055,-4.4408921e-16 C40.47297,0.007812 40.8675,0.14844 41.2425,0.40625 L79.2425,30.40625 C80.1175,31.10937 80.2425,32.40235 79.58625,33.25005 C78.94172,34.08208 77.57065,34.2188 76.74245,33.56255 L39.99245,4.56255 L3.24245,33.56255 C2.41432,34.2188 1.08225,34.07817 0.42995,33.25005 C-0.21849,32.42583 -0.14818,31.06255 0.74245,30.40625 L16.99245,17.56225 L16.99245,0.00025 L24.99245,0.00025 L24.99245,11.25025 L38.74245,0.40625 C39.18776,0.11328 39.63698,-0.00781 40.05495,-4.4408921e-16 L40.055,-4.4408921e-16 Z M39.9925,8 L66.9925,29 L66.9925,62 L49.9925,62 L49.9925,42 L29.9925,42 L29.9925,62 L12.9925,62 L12.9925,29 L39.9925,8 Z" id="Shape"></path>
        </g>
    </g>
</svg>