<?xml version="1.0" encoding="UTF-8"?>
<svg width="37px" height="36px" viewBox="0 0 37 36" version="1.1" xmlns="http://www.w3.org/2000/svg" xmlns:xlink="http://www.w3.org/1999/xlink">
    <!-- Generator: Sketch 58 (84663) - https://sketch.com -->
    <title>instagram</title>
    <desc>Created with Sketch.</desc>
    <g id="Page-1" stroke="none" stroke-width="1" fill="none" fill-rule="evenodd">
        <g id="instagram" transform="translate(1.000000, 1.000000)">
            <g id="icons8-instagram_new" transform="translate(6.000000, 5.000000)" fill="#FFFFFF" fill-rule="nonzero">
                <path d="M6.66666667,0 C2.99066667,0 0,2.99066667 0,6.66666667 L0,17.3333333 C0,21.0093333 2.99066667,24 6.66666667,24 L17.3333333,24 C21.0093333,24 24,21.0093333 24,17.3333333 L24,6.66666667 C24,2.99066667 21.0093333,0 17.3333333,0 L6.66666667,0 Z M6.66666667,2.66666667 L17.3333333,2.66666667 C19.5386667,2.66666667 21.3333333,4.46133333 21.3333333,6.66666667 L21.3333333,17.3333333 C21.3333333,19.5386667 19.5386667,21.3333333 17.3333333,21.3333333 L6.66666667,21.3333333 C4.46133333,21.3333333 2.66666667,19.5386667 2.66666667,17.3333333 L2.66666667,6.66666667 C2.66666667,4.46133333 4.46133333,2.66666667 6.66666667,2.66666667 Z M18.6666667,4 C17.9302871,4 17.3333333,4.59695367 17.3333333,5.33333333 C17.3333333,6.069713 17.9302871,6.66666667 18.6666667,6.66666667 C19.4030463,6.66666667 20,6.069713 20,5.33333333 C20,4.59695367 19.4030463,4 18.6666667,4 Z M12,5.33333333 C8.324,5.33333333 5.33333333,8.324 5.33333333,12 C5.33333333,15.676 8.324,18.6666667 12,18.6666667 C15.676,18.6666667 18.6666667,15.676 18.6666667,12 C18.6666667,8.324 15.676,5.33333333 12,5.33333333 Z M12,8 C14.2053333,8 16,9.79466667 16,12 C16,14.2053333 14.2053333,16 12,16 C9.79466667,16 8,14.2053333 8,12 C8,9.79466667 9.79466667,8 12,8 Z" id="Shape"></path>
            </g>
            <path d="M5.409713,0 C3.52863614,0 2.79081842,0.14247918 2.0294846,0.54964496 C1.38893826,0.89221289 0.89221289,1.38893826 0.54964496,2.0294846 C0.14247918,2.79081842 0,3.52863614 0,5.409713 L0,28.590287 C0,30.4713639 0.14247918,31.2091816 0.54964496,31.9705154 C0.89221289,32.6110617 1.38893826,33.1077871 2.0294846,33.450355 C2.79081842,33.8575208 3.52863614,34 5.409713,34 L29.590287,34 C31.4713639,34 32.2091816,33.8575208 32.9705154,33.450355 C33.6110617,33.1077871 34.1077871,32.6110617 34.450355,31.9705154 C34.8575208,31.2091816 35,30.4713639 35,28.590287 L35,5.409713 C35,3.52863614 34.8575208,2.79081842 34.450355,2.0294846 C34.1077871,1.38893826 33.6110617,0.89221289 32.9705154,0.54964496 C32.2091816,0.14247918 31.4713639,0 29.590287,0 L5.409713,0 Z" id="Rectangle" stroke="#FFFFFF" stroke-width="2"></path>
        </g>
    </g>
</svg>